{
    "id" : "cloze4",
    "task" : "Please fill out the blanks",
    "text" : "Lorem ipsum dolor sit amet, consectetur adipiscing elit. Praesent metus libero, dignissim at porttitor vitae...",
    "kind" : "cloze",
    "gaps" : {
        "1" : "World"
    },
    "answer" : {},
    "answer" : []
}
