{
    "id" : "87asds8",
    "tasks" : [
        {
            "id" : "sadfdf",
            "kind" : "text",
            "task" : "Hello World. Write something.",
            "answer" : ""
        },
        {
            "id" : "sadfdf",
            "kind" : "text",
            "task" : "Hello World. Write something.",
            "answer" : ""
        },
        {
            "id" : "sadfdf",
            "kind" : "text",
            "task" : "Hello World. Write something.",
            "answer" : ""
        },
        {
            "id" : "sadfdf",
            "kind" : "text",
            "task" : "Hello World. Write something.",
            "answer" : ""
        }
    ]
}
